<?xml version="1.0" encoding="UTF-8" standalone="no"?>
<svg xmlns="http://www.w3.org/2000/svg" xmlns:xlink="http://www.w3.org/1999/xlink" contentScriptType="application/ecmascript" contentStyleType="text/css" height="431px" preserveAspectRatio="none" style="width:680px;height:431px;background:#FFFFFF;" version="1.1" viewBox="0 0 680 431" width="680px" zoomAndPan="magnify"><defs><filter height="300%" id="fwsq95xyd3qx2" width="300%" x="-1" y="-1"><feGaussianBlur result="blurOut" stdDeviation="2.0"/><feColorMatrix in="blurOut" result="blurOut2" type="matrix" values="0 0 0 0 0 0 0 0 0 0 0 0 0 0 0 0 0 0 .4 0"/><feOffset dx="4.0" dy="4.0" in="blurOut2" result="blurOut3"/><feBlend in="SourceGraphic" in2="blurOut3" mode="normal"/></filter></defs><g><g id="STOP"><rect fill="#FEFECE" filter="url(#fwsq95xyd3qx2)" height="50" rx="12.5" ry="12.5" style="stroke:#A80036;stroke-width:1.5;" width="58" x="235.5" y="228"/><line style="stroke:#A80036;stroke-width:1.5;" x1="235.5" x2="293.5" y1="254.7999" y2="254.7999"/><text fill="#000000" font-family="sans-serif" font-size="14" lengthAdjust="spacing" textLength="38" x="245.5" y="246.9999">STOP</text></g><ellipse cx="264.5" cy="16" fill="#000000" filter="url(#fwsq95xyd3qx2)" rx="10" ry="10" style="stroke:none;stroke-width:1.0;"/><rect fill="#FEFECE" filter="url(#fwsq95xyd3qx2)" height="333.7999" rx="12.5" ry="12.5" style="stroke:#A80036;stroke-width:1.5;" width="339.5" x="328.5" y="86"/><rect fill="#FFFFFF" height="301" rx="12.5" ry="12.5" style="stroke:#FFFFFF;stroke-width:1.0;" width="333.5" x="331.5" y="115.7999"/><line style="stroke:#A80036;stroke-width:1.5;" x1="328.5" x2="668" y1="112.7999" y2="112.7999"/><text fill="#000000" font-family="sans-serif" font-size="14" lengthAdjust="spacing" textLength="82" x="457.25" y="104.9999">PlayingTrack</text><g id="PlayingTrack.RANDOM_TRACK_SELECTION"><rect fill="#FEFECE" filter="url(#fwsq95xyd3qx2)" height="50" rx="12.5" ry="12.5" style="stroke:#A80036;stroke-width:1.5;" width="224" x="376.5" y="179.7999"/><line style="stroke:#A80036;stroke-width:1.5;" x1="376.5" x2="600.5" y1="206.5999" y2="206.5999"/><text fill="#000000" font-family="sans-serif" font-size="14" lengthAdjust="spacing" textLength="204" x="386.5" y="198.7999">RANDOM_TRACK_SELECTION</text></g><g id="PlayingTrack.PLAYING_TRACK"><rect fill="#FEFECE" filter="url(#fwsq95xyd3qx2)" height="50" rx="12.5" ry="12.5" style="stroke:#A80036;stroke-width:1.5;" width="135" x="517" y="265.7999"/><line style="stroke:#A80036;stroke-width:1.5;" x1="517" x2="652" y1="292.5999" y2="292.5999"/><text fill="#000000" font-family="sans-serif" font-size="14" lengthAdjust="spacing" textLength="115" x="527" y="284.7999">PLAYING_TRACK</text></g><g id="PlayingTrack.TRACK_DELAY"><rect fill="#FEFECE" filter="url(#fwsq95xyd3qx2)" height="50" rx="12.5" ry="12.5" style="stroke:#A80036;stroke-width:1.5;" width="120" x="340.5" y="265.7999"/><line style="stroke:#A80036;stroke-width:1.5;" x1="340.5" x2="460.5" y1="292.5999" y2="292.5999"/><text fill="#000000" font-family="sans-serif" font-size="14" lengthAdjust="spacing" textLength="100" x="350.5" y="284.7999">TRACK_DELAY</text></g><g id="PlayingTrack.RANDOM_DELAY_SELECTION"><rect fill="#FEFECE" filter="url(#fwsq95xyd3qx2)" height="50" rx="12.5" ry="12.5" style="stroke:#A80036;stroke-width:1.5;" width="222" x="377.5" y="351.7999"/><line style="stroke:#A80036;stroke-width:1.5;" x1="377.5" x2="599.5" y1="378.5999" y2="378.5999"/><text fill="#000000" font-family="sans-serif" font-size="14" lengthAdjust="spacing" textLength="202" x="387.5" y="370.7999">RANDOM_DELAY_SELECTION</text></g><ellipse cx="488.5" cy="133.7999" fill="#000000" filter="url(#fwsq95xyd3qx2)" rx="10" ry="10" style="stroke:none;stroke-width:1.0;"/><ellipse cx="488.5" cy="290.7999" filter="url(#fwsq95xyd3qx2)" rx="10" ry="10" style="stroke:#000000;stroke-width:1.0;fill:none;"/><ellipse cx="489" cy="291.2999" fill="#000000" rx="6" ry="6" style="stroke:none;stroke-width:1.0;"/><!--MD5=[db159707a1eec88d0c67de403829a943]
link *start*PlayingTrack to RANDOM_TRACK_SELECTION--><path d="M488.5,143.8199 C488.5,151.6799 488.5,163.5199 488.5,174.6099 " fill="none" id="*start*PlayingTrack-to-RANDOM_TRACK_SELECTION" style="stroke:#A80036;stroke-width:1.0;"/><polygon fill="#A80036" points="488.5,179.6299,492.5,170.6299,488.5,174.6299,484.5,170.6299,488.5,179.6299" style="stroke:#A80036;stroke-width:1.0;"/><!--MD5=[1c851e810b2f64949c728366d99bbf41]
link RANDOM_TRACK_SELECTION to PLAYING_TRACK--><path d="M516.01,229.8699 C527.56,239.9799 541.06,251.7899 553,262.2399 " fill="none" id="RANDOM_TRACK_SELECTION-to-PLAYING_TRACK" style="stroke:#A80036;stroke-width:1.0;"/><polygon fill="#A80036" points="556.99,265.7299,552.8676,256.7853,553.2333,262.4303,547.5883,262.796,556.99,265.7299" style="stroke:#A80036;stroke-width:1.0;"/><!--MD5=[ad6dee3704d2a5075b7d321ad65ff0eb]
link PLAYING_TRACK to RANDOM_DELAY_SELECTION--><path d="M556.99,315.8699 C545.44,325.9799 531.94,337.7899 520,348.2399 " fill="none" id="PLAYING_TRACK-to-RANDOM_DELAY_SELECTION" style="stroke:#A80036;stroke-width:1.0;"/><polygon fill="#A80036" points="516.01,351.7299,525.4117,348.796,519.7667,348.4303,520.1324,342.7853,516.01,351.7299" style="stroke:#A80036;stroke-width:1.0;"/><!--MD5=[4743c752da8a03033083df51652fddf2]
reverse link TRACK_DELAY to RANDOM_DELAY_SELECTION--><path d="M429.57,319.5499 C440.41,329.8999 452.62,341.5499 463.1,351.5599 " fill="none" id="TRACK_DELAY-backto-RANDOM_DELAY_SELECTION" style="stroke:#A80036;stroke-width:1.0;"/><polygon fill="#A80036" points="425.95,316.0999,429.6889,325.2115,429.5632,319.556,435.2187,319.4304,425.95,316.0999" style="stroke:#A80036;stroke-width:1.0;"/><!--MD5=[f37ddd959e2bb1131f7b921bb05c07ed]
reverse link RANDOM_TRACK_SELECTION to TRACK_DELAY--><path d="M459.43,233.5499 C448.59,243.8999 436.38,255.5499 425.9,265.5599 " fill="none" id="RANDOM_TRACK_SELECTION-backto-TRACK_DELAY" style="stroke:#A80036;stroke-width:1.0;"/><polygon fill="#A80036" points="463.05,230.0999,453.7813,233.4304,459.4368,233.556,459.3111,239.2115,463.05,230.0999" style="stroke:#A80036;stroke-width:1.0;"/><!--MD5=[db7a6c3e4353267b2d99d65fafedcbf3]
link RANDOM_TRACK_SELECTION to *end*PlayingTrack--><path d="M488.5,230.0999 C488.5,244.7199 488.5,262.8499 488.5,275.2699 " fill="none" id="RANDOM_TRACK_SELECTION-to-*end*PlayingTrack" style="stroke:#A80036;stroke-width:1.0;"/><polygon fill="#A80036" points="488.5,280.5399,492.5,271.5399,488.5,275.5399,484.5,271.5399,488.5,280.5399" style="stroke:#A80036;stroke-width:1.0;"/><!--MD5=[071c7e4317f20cef896d633d9b54103b]
reverse link *end*PlayingTrack to PLAYING_TRACK--><path d="M503.72,290.7999 C508.06,290.7999 512.4,290.7999 516.74,290.7999 " fill="none" id="*end*PlayingTrack-backto-PLAYING_TRACK" style="stroke:#A80036;stroke-width:1.0;"/><polygon fill="#A80036" points="498.62,290.7999,507.6314,294.7742,503.62,290.7856,507.6085,286.7742,498.62,290.7999" style="stroke:#A80036;stroke-width:1.0;"/><!--MD5=[7fef9d5e008e3451335514c0e608e955]
link RANDOM_DELAY_SELECTION to *end*PlayingTrack--><path d="M488.5,351.7699 C488.5,337.1399 488.5,318.9099 488.5,306.4099 " fill="none" id="RANDOM_DELAY_SELECTION-to-*end*PlayingTrack" style="stroke:#A80036;stroke-width:1.0;"/><polygon fill="#A80036" points="488.5,301.1099,484.5,310.1099,488.5,306.1099,492.5,310.1099,488.5,301.1099" style="stroke:#A80036;stroke-width:1.0;"/><!--MD5=[d51ef3eb16a093a95b99afe8f47ef0f1]
link TRACK_DELAY to *end*PlayingTrack--><path d="M460.66,290.7999 C464.93,290.7999 469.2,290.7999 473.48,290.7999 " fill="none" id="TRACK_DELAY-to-*end*PlayingTrack" style="stroke:#A80036;stroke-width:1.0;"/><polygon fill="#A80036" points="478.49,290.7999,469.49,286.7999,473.49,290.7999,469.49,294.7999,478.49,290.7999" style="stroke:#A80036;stroke-width:1.0;"/><rect fill="#FEFECE" filter="url(#fwsq95xyd3qx2)" height="301.7999" rx="12.5" ry="12.5" style="stroke:#A80036;stroke-width:1.5;" width="193" x="7" y="102"/><rect fill="#FFFFFF" height="269" rx="12.5" ry="12.5" style="stroke:#FFFFFF;stroke-width:1.0;" width="187" x="10" y="131.7999"/><line style="stroke:#A80036;stroke-width:1.5;" x1="7" x2="200" y1="128.7999" y2="128.7999"/><text fill="#000000" font-family="sans-serif" font-size="14" lengthAdjust="spacing" textLength="83" x="62" y="120.9999">Configuration</text><g id="Configuration.CONFIG_MIN_DELAY"><rect fill="#FEFECE" filter="url(#fwsq95xyd3qx2)" height="50" rx="12.5" ry="12.5" style="stroke:#A80036;stroke-width:1.5;" width="161" x="21" y="195.7999"/><line style="stroke:#A80036;stroke-width:1.5;" x1="21" x2="182" y1="222.5999" y2="222.5999"/><text fill="#000000" font-family="sans-serif" font-size="14" lengthAdjust="spacing" textLength="141" x="31" y="214.7999">CONFIG_MIN_DELAY</text></g><g id="Configuration.CONFIG_MAX_DELAY"><rect fill="#FEFECE" filter="url(#fwsq95xyd3qx2)" height="50" rx="12.5" ry="12.5" style="stroke:#A80036;stroke-width:1.5;" width="165" x="19" y="281.7999"/><line style="stroke:#A80036;stroke-width:1.5;" x1="19" x2="184" y1="308.5999" y2="308.5999"/><text fill="#000000" font-family="sans-serif" font-size="14" lengthAdjust="spacing" textLength="145" x="29" y="300.7999">CONFIG_MAX_DELAY</text></g><ellipse cx="101.5" cy="149.7999" fill="#000000" filter="url(#fwsq95xyd3qx2)" rx="10" ry="10" style="stroke:none;stroke-width:1.0;"/><ellipse cx="101.5" cy="377.7999" filter="url(#fwsq95xyd3qx2)" rx="10" ry="10" style="stroke:#000000;stroke-width:1.0;fill:none;"/><ellipse cx="102" cy="378.2999" fill="#000000" rx="6" ry="6" style="stroke:none;stroke-width:1.0;"/><!--MD5=[2c3f2b6a81b28f630fc311baf50df095]
link *start*Configuration to CONFIG_MIN_DELAY--><path d="M101.5,159.8199 C101.5,167.6799 101.5,179.5199 101.5,190.6099 " fill="none" id="*start*Configuration-to-CONFIG_MIN_DELAY" style="stroke:#A80036;stroke-width:1.0;"/><polygon fill="#A80036" points="101.5,195.6299,105.5,186.6299,101.5,190.6299,97.5,186.6299,101.5,195.6299" style="stroke:#A80036;stroke-width:1.0;"/><!--MD5=[2b5337ccf9125a25714c73f866d363b1]
link CONFIG_MIN_DELAY to CONFIG_MAX_DELAY--><path d="M101.5,246.0999 C101.5,255.5899 101.5,266.5499 101.5,276.4799 " fill="none" id="CONFIG_MIN_DELAY-to-CONFIG_MAX_DELAY" style="stroke:#A80036;stroke-width:1.0;"/><polygon fill="#A80036" points="101.5,281.5599,105.5,272.5599,101.5,276.5599,97.5,272.5599,101.5,281.5599" style="stroke:#A80036;stroke-width:1.0;"/><!--MD5=[62bb2c9ac138307cf18349114425bae3]
link CONFIG_MAX_DELAY to *end*Configuration--><path d="M101.5,331.9299 C101.5,342.0999 101.5,353.5999 101.5,362.4099 " fill="none" id="CONFIG_MAX_DELAY-to-*end*Configuration" style="stroke:#A80036;stroke-width:1.0;"/><polygon fill="#A80036" points="101.5,367.5099,105.5,358.5099,101.5,362.5099,97.5,358.5099,101.5,367.5099" style="stroke:#A80036;stroke-width:1.0;"/><!--MD5=[eba2e3c164685584bc85c0fec79dc151]
link *start to STOP--><path d="M264.5,26.21 C264.5,58.7 264.5,168.85 264.5,222.35 " fill="none" id="*start-to-STOP" style="stroke:#A80036;stroke-width:1.0;"/><polygon fill="#A80036" points="264.5,227.66,268.5,218.66,264.5,222.66,260.5,218.66,264.5,227.66" style="stroke:#A80036;stroke-width:1.0;"/><!--MD5=[f79f63d0806c9226924739a83b48483a]
link STOP to PlayingTrack--><path d="M293.75,261.2 C303.51,263.55 313.27,265.5 323.04,267.07 " fill="none" id="STOP-to-PlayingTrack" style="stroke:#A80036;stroke-width:1.0;"/><polygon fill="#A80036" points="328.14,267.85,319.8494,262.5334,323.1976,267.0929,318.6381,270.4412,328.14,267.85" style="stroke:#A80036;stroke-width:1.0;"/><!--MD5=[6f3eed55274394bee6b720416c4796c0]
reverse link STOP to PlayingTrack--><path d="M298.86,243.61 C308.62,241.4 318.38,239.58 328.14,238.15 " fill="none" id="STOP-backto-PlayingTrack" style="stroke:#A80036;stroke-width:1.0;"/><polygon fill="#A80036" points="293.75,244.8,303.4269,246.6323,298.6171,243.6548,301.5946,238.845,293.75,244.8" style="stroke:#A80036;stroke-width:1.0;"/><!--MD5=[42b8be76b46750dee08e8e63f22368ad]
reverse link Configuration to STOP--><path d="M204.34,359.02 C221.24,347.01 238.15,320 255.06,278.01 " fill="none" id="Configuration-backto-STOP" style="stroke:#A80036;stroke-width:1.0;"/><polygon fill="#A80036" points="200.04,361.76,209.7795,360.2964,204.2565,359.0728,205.4801,353.5499,200.04,361.76" style="stroke:#A80036;stroke-width:1.0;"/><!--MD5=[9cfbccfc7cf5503f1ff1c310a6a82cbb]
link Configuration to STOP--><path d="M200.04,144.24 C217.73,154.16 235.43,180.5 253.12,223.25 " fill="none" id="Configuration-to-STOP" style="stroke:#A80036;stroke-width:1.0;"/><polygon fill="#A80036" points="255.06,227.99,255.3687,218.146,253.1735,223.3595,247.96,221.1644,255.06,227.99" style="stroke:#A80036;stroke-width:1.0;"/><!--MD5=[15f3efaf071a92a76ae78b087d63bc70]
@startuml

state STOP

state PlayingTrack {
  state RANDOM_TRACK_SELECTION
  state PLAYING_TRACK
  state TRACK_DELAY
  state RANDOM_DELAY_SELECTION
  
  [*] -down-> RANDOM_TRACK_SELECTION
  RANDOM_TRACK_SELECTION -right-> PLAYING_TRACK
  PLAYING_TRACK -down-> RANDOM_DELAY_SELECTION
  RANDOM_DELAY_SELECTION -left-> TRACK_DELAY
  TRACK_DELAY -up-> RANDOM_TRACK_SELECTION

  RANDOM_TRACK_SELECTION -down-> [*]
  PLAYING_TRACK -left-> [*]
  RANDOM_DELAY_SELECTION -> [*]
  TRACK_DELAY -> [*]
}

state Configuration {
  state CONFIG_MIN_DELAY 
  state CONFIG_MAX_DELAY

  [*] -down->CONFIG_MIN_DELAY 
  CONFIG_MIN_DELAY -down->CONFIG_MAX_DELAY
  CONFIG_MAX_DELAY -down-> [*]
}

[*] - -> STOP

STOP-right-> PlayingTrack 
PlayingTrack -left-> STOP

STOP-left-> Configuration 
Configuration -right-> STOP






@enduml

PlantUML version 1.2021.16(Wed Dec 08 17:25:22 GMT 2021)
(GPL source distribution)
Java Runtime: OpenJDK Runtime Environment
JVM: OpenJDK 64-Bit Server VM
Default Encoding: UTF-8
Language: en
Country: US
--></g></svg>